{
    "jobExecutionUrl" : "http://induction-dev-t4.gwynniebee.com:8080/team4-employee-information-bi",
    "jobDefinition" : {
        "jobName": "team4-employee-information-bi",
        "paramMap" : {
        }
    },
    "schedule" : {
        "type" : "cron",
        "params" : {
            "CronExpression" : "0 0/3 * * * ?"
        }
    },
    "notificationMap" : [ {
        "type" : "failure",
        "mode" : "email",
        "channel" : "gb-error-qa@gwynniebee.com"
    } ]
}
